﻿{
  "profiles": {
    "BeeITGrpc": {
      "commandName": "Project",
      "dotnetRunMessages": "true",
      "launchBrowser": false,
      "applicationUrl": "http://localhost:5000;https://localhost:5001",
      "environmentVariables": {
        "ASPNETCORE_ENVIRONMENT": "Development"
      }
    }
  }
}
